{
    "debugbar.openhandler": "_debugbar\/open",
    "debugbar.clockwork": "_debugbar\/clockwork\/{id}",
    "debugbar.assets.css": "_debugbar\/assets\/stylesheets",
    "debugbar.assets.js": "_debugbar\/assets\/javascript",
    "home": "\/",
    "eventos": "eventos",
    "contactar": "contactar",
    "contactar.post": "contactar",
    "about": "sobre-o-colegio",
    "informacoes": "informacoes",
    "documentos.matricula": "documentos-para-matricula",
    "tabela.precos": "tabela-de-precos",
    "terms.conditions": "termos-e-condicoes",
    "gallery": "galeria",
    "noticias.index": "noticias",
    "noticias.show": "noticias\/{noticia}",
    "login": "login",
    "": "enveditor\/test",
    "logout": "logout",
    "register": "register",
    "password.request": "password\/reset",
    "password.email": "password\/email",
    "password.reset": "password\/reset\/{token}",
    "activate": "activate",
    "authenticated.activate": "activate\/{token}",
    "authenticated.activation-resend": "activation",
    "exceeded": "exceeded",
    "social.redirect": "social\/redirect\/{provider}",
    "social.handle": "social\/handle\/{provider}",
    "user.reactivate": "re-activate\/{token}",
    "activation-required": "activation-required",
    "dashboard.home": "home",
    "{username}": "profile\/{username}\/deleteUserAccount",
    "profile.create": "profile\/create",
    "profile.show": "profile\/{profile}",
    "profile.edit": "profile\/{profile}\/edit",
    "profile.update": "profile\/{profile}",
    "avatar.upload": "avatar\/upload",
    "estudante.notas.show": "estudantes\/notas\/{nota}",
    "estudante.ano_lectivo.notas.show": "estudantes\/{ano_lectivo}\/notas\/{nota}",
    "estudante.disciplina.show": "estudantes\/disciplinas\/{disciplina}",
    "estudante.matriculas": "estudantes\/matriculas",
    "estudante.matricula.show": "estudantes\/matriculas\/{matricula}",
    "estudante.pagamentos": "estudantes\/pagamentos",
    "estudante.pagamento.edit": "estudantes\/pagamentos\/{pagamento}\/edit",
    "estudante.pagamento.update": "estudantes\/pagamentos\/{pagamento}",
    "estudante.pagamento.destroy": "estudantes\/pagamentos\/{pagamento}",
    "deleted.index": "usuarios\/deleted",
    "deleted.show": "usuarios\/deleted\/{deleted}",
    "deleted.update": "usuarios\/deleted\/{deleted}",
    "deleted.destroy": "usuarios\/deleted\/{deleted}",
    "usuarios": "usuarios",
    "usuarios.create": "usuarios\/create",
    "usuarios.store": "usuarios",
    "usuario.show": "usuarios\/{usuario}",
    "usuario.edit": "usuarios\/{usuario}\/edit",
    "usuarios.update": "usuarios\/{usuario}",
    "usuario.destroy": "usuarios\/{usuario}",
    "professores": "professores",
    "professores.create": "professores\/create",
    "professores.store": "professores",
    "professor.show": "professores\/{professore}",
    "professor.edit": "professores\/{professore}\/edit",
    "professores.update": "professores\/{professore}",
    "professor.destroy": "professores\/{professore}",
    "encarregados": "encarregados",
    "encarregados.create": "encarregados\/create",
    "encarregados.store": "encarregados",
    "encarregado.show": "encarregados\/{encarregado}",
    "encarregado.edit": "encarregados\/{encarregado}\/edit",
    "encarregados.update": "encarregados\/{encarregado}",
    "encarregado.destroy": "encarregados\/{encarregado}",
    "disciplinas": "disciplinas",
    "disciplinas.create": "disciplinas\/create",
    "disciplinas.store": "disciplinas",
    "disciplinas.show": "disciplinas\/{disciplina}",
    "disciplina.edit": "disciplinas\/{disciplina}\/edit",
    "disciplinas.update": "disciplinas\/{disciplina}",
    "disciplina.destroy": "disciplinas\/{disciplina}",
    "estudante.matriculas.readmitir": "estudantes\/matriculas\/readmitir",
    "estudantes": "estudantes",
    "estudantes.create": "estudantes\/create",
    "estudantes.store": "estudantes",
    "estudantes.show": "estudantes\/{estudante}",
    "estudantes.edit": "estudantes\/{estudante}\/edit",
    "estudantes.update": "estudantes\/{estudante}",
    "estudante.destroy": "estudantes\/{estudante}",
    "pagamentos": "pagamentos",
    "pagamentos.create": "pagamentos\/create",
    "pagamentos.store": "pagamentos",
    "pagamentos.show": "pagamentos\/{pagamento}",
    "pagamentos.edit": "pagamentos\/{pagamento}\/edit",
    "pagamentos.update": "pagamentos\/{pagamento}",
    "pagamento.destroy": "pagamentos\/{pagamento}",
    "estudante.notas.add.index": "estudantes\/adicionar\/notas",
    "estudante.notas.add.store": "estudantes\/adicionar\/notas",
    "estudante.notas.add.show": "estudantes\/adicionar\/notas\/{nota}",
    "student.get.marks": "estudantes\/adicionar\/notas\/ver\/{student}",
    "student.get.subjects": "estudantes\/adicionar\/disciplinas\/ver\/{student}",
    "student.post.marks": "estudantes\/adicionar\/notas\/criar",
    "temas": "temas",
    "temas.create": "temas\/create",
    "temas.store": "temas",
    "tema.show": "temas\/{tema}",
    "tema.edit": "temas\/{tema}\/edit",
    "temas.update": "temas\/{tema}",
    "tema.destroy": "temas\/{tema}",
    "admin.logs": "admin\/logs",
    "admin.php": "admin\/php",
    "admin.routes": "admin\/routes",
    "admin.details": "admin\/details",
    "admin.details.post": "admin\/details",
    "paginas": "admin\/paginas",
    "paginas.create": "admin\/paginas\/create",
    "paginas.store": "admin\/paginas",
    "paginas.show": "admin\/paginas\/{pagina}",
    "paginas.edit": "admin\/paginas\/{pagina}\/edit",
    "paginas.update": "admin\/paginas\/{pagina}",
    "pagina.destroy": "admin\/paginas\/{pagina}",
    "admin.pages.info": "pages\/info",
    "admin.pages.info.post": "pages\/info",
    "admin.pages.about": "pages\/about-us",
    "admin.pages.about.post": "pages\/about-us",
    "photos.all": "photos\/all",
    "photos.filtered": "photos\/filtered",
    "photos": "photos",
    "photos.create": "photos\/create",
    "photos.store": "photos",
    "photo.show": "photos\/{photo}",
    "photo.edit": "photos\/{photo}\/edit",
    "photos.update": "photos\/{photo}",
    "photo.destroy": "photos\/{photo}",
    "chatter.home": "forums",
    "chatter.category.show": "forums\/category\/{slug}",
    "chatter.login": "forums\/login",
    "chatter.register": "forums\/register",
    "chatter.discussion.index": "forums\/discussion",
    "chatter.discussion.create": "forums\/discussion\/create",
    "chatter.discussion.store": "forums\/discussion",
    "chatter.discussion.showInCategory": "forums\/discussion\/{category}\/{slug}",
    "chatter.discussion.email": "forums\/discussion\/{category}\/{slug}\/email",
    "chatter.discussion.show": "forums\/discussion\/{discussion}",
    "chatter.discussion.edit": "forums\/discussion\/{discussion}\/edit",
    "chatter.discussion.update": "forums\/discussion\/{discussion}",
    "chatter.discussion.destroy": "forums\/discussion\/{discussion}",
    "chatter.posts.index": "forums\/posts",
    "chatter.posts.create": "forums\/posts\/create",
    "chatter.posts.store": "forums\/posts",
    "chatter.posts.show": "forums\/posts\/{post}",
    "chatter.posts.edit": "forums\/posts\/{post}\/edit",
    "chatter.posts.update": "forums\/posts\/{post}",
    "chatter.posts.destroy": "forums\/posts\/{post}",
    "chatter.atom": "forums.atom"
}